[
    {
        "nodeId": 1,
        "firstName": "Bart",
        "middleName": null,
        "lastName": "Simpson",
        "title": "PhD",
        "email": "elbarto@aycaramba.com",
        "godchildren": []
    },
    {
        "nodeId": 17,
        "firstName": "Charles",
        "middleName": "Montgomery",
        "lastName": "Burns",
        "title": null,
        "email": "mr_burns@nuclearpower.com",
        "godchildren": [
            {
                "nodeId": 3,
                "firstName": null,
                "middleName": null,
                "lastName": null,
                "dateBorn": null,
                "yearBorn": 0
            },
            {
                "nodeId": 22,
                "firstName": null,
                "middleName": null,
                "lastName": null,
                "dateBorn": null,
                "yearBorn": 0
            }
        ]
    },
    {
        "nodeId": 15,
        "firstName": "Edna",
        "middleName": null,
        "lastName": "Krabappel",
        "title": null,
        "email": "edna@springfield.edu",
        "godchildren": [
            {
                "nodeId": 20,
                "firstName": null,
                "middleName": null,
                "lastName": null,
                "dateBorn": null,
                "yearBorn": 0
            }
        ]
    },
    {
        "nodeId": 2,
        "firstName": "Homer",
        "middleName": null,
        "lastName": "Simpson",
        "title": null,
        "email": "homer@fox.com",
        "godchildren": []
    },
    {
        "nodeId": 16,
        "firstName": "Julius",
        "middleName": "Murphy",
        "lastName": "Hibbert",
        "title": "M.D.",
        "email": "hibbert@healthcare.com",
        "godchildren": [
            {
                "nodeId": 18,
                "firstName": null,
                "middleName": null,
                "lastName": null,
                "dateBorn": null,
                "yearBorn": 0
            }
        ]
    },
    {
        "nodeId": 14,
        "firstName": "Lisa",
        "middleName": null,
        "lastName": "Simpson",
        "title": null,
        "email": "lisa@peace.org",
        "godchildren": [
            {
                "nodeId": 19,
                "firstName": null,
                "middleName": null,
                "lastName": null,
                "dateBorn": null,
                "yearBorn": 0
            }
        ]
    }
]